…
```
## [1] 1.945299
```

## select() para colunas


```r
select(dados, manufacturer, model, year)
```

```
## # A tibble: 234 x 3
##    manufacturer model       year
##    <fct>        <fct>      <int>
##  1 audi         a4          1999
##  2 audi         a4          1999
##  3 audi         a4          2008
##  4 audi         a4          2008
##  5 audi         a4          1999
##  6 audi         a4          1999
##  7 audi         a4          2008
##  8 audi         a4 quattro  1999
##  9 audi         a4 quattro  1999
## 10 audi         a4 quattro  2008
## # ... with 224 more rows
```

```r
select(dados, starts_with("m"))
```

```
## # A tibble: 234 x 2
##    manufacturer model     
##    <fct>        <fct>     
##  1 audi         a4        
##  2 audi         a4        
##  3 audi         a4        
##  4 audi         a4        
##  5 audi         a4        
##  6 audi         a4        
##  7 audi         a4        
##  8 audi         a4 quattro
##  9 audi         a4 quattro
## 10 audi         a4 quattro
## # ... with 224 more rows
```

```r
select(dados, contains("r"))
```

```
## # A tibble: 234 x 4
##    manufacturer  year trans      drv  
##    <fct>        <int> <fct>      <fct>
##  1 audi          1999 auto(l5)   f    
##  2 audi          1999 manual(m5) f    
##  3 audi          2008 manual(m6) f    
##  4 audi          2008 auto(av)   f    
##  5 audi          1999 auto(l5)   f    
##  6 audi          1999 manual(m5) f    
##  7 audi          2008 auto(av)   f    
##  8 audi          1999 manual(m5) 4    
##  9 audi          1999 auto(l5)   4    
## 10 audi          2008 manual(m6) 4    
## # ... with 224 more rows
```

```r
select(dados, ends_with("y"))
```

```
## # A tibble: 234 x 2
##      cty   hwy
##    <int> <int>
##  1    18    29
##  2    21    29
##  3    20    31
##  4    21    30
##  5    16    26
##  6    18    26
##  7    18    27
##  8    18    26
##  9    16    25
## 10    20    28
## # ... with 224 more rows
```

```r
select(dados, matches("[abc]"))
```

```
## # A tibble: 234 x 6
##    manufacturer  year   cyl trans        cty class  
##    <fct>        <int> <int> <fct>      <int> <fct>  
##  1 audi          1999     4 auto(l5)      18 compact
##  2 audi          1999     4 manual(m5)    21 compact
##  3 audi          2008     4 manual(m6)    20 compact
##  4 audi          2008     4 auto(av)      21 compact
##  5 audi          1999     6 auto(l5)      16 compact
##  6 audi          1999     6 manual(m5)    18 compact
##  7 audi          2008     6 auto(av)      18 compact
##  8 audi          1999     4 manual(m5)    18 compact
##  9 audi          1999     4 auto(l5)      16 compact
## 10 audi          2008     4 manual(m6)    20 compact
## # ... with 224 more rows
```

```r
select(dados, starts_with("m"), starts_with("c")) 
```

```
## # A tibble: 234 x 5
##    manufacturer model        cyl   cty class  
##    <fct>        <fct>      <int> <int> <fct>  
##  1 audi         a4             4    18 compact
##  2 audi         a4             4    21 compact
##  3 audi         a4             4    20 compact
##  4 audi         a4             4    21 compact
##  5 audi         a4             6    16 compact
##  6 audi         a4             6    18 compact
##  7 audi         a4             6    18 compact
##  8 audi         a4 quattro     4    18 compact
##  9 audi         a4 quattro     4    16 compact
## 10 audi         a4 quattro     4    20 compact
## # ... with 224 more rows
```

```r
select(dados, ends_with("l"), ends_with("s")) 
```

```
## # A tibble: 234 x 6
##    model      displ   cyl fl    trans      class  
##    <fct>      <dbl> <int> <fct> <fct>      <fct>  
##  1 a4           1.8     4 p     auto(l5)   compact
##  2 a4           1.8     4 p     manual(m5) compact
##  3 a4           2       4 p     manual(m6) compact
##  4 a4           2       4 p     auto(av)   compact
##  5 a4           2.8     6 p     auto(l5)   compact
##  6 a4           2.8     6 p     manual(m5) compact
##  7 a4           3.1     6 p     auto(av)   compact
##  8 a4 quattro   1.8     4 p     manual(m5) compact
##  9 a4 quattro   1.8     4 p     auto(l5)   compact
## 10 a4 quattro   2       4 p     manual(m6) compact
## # ... with 224 more rows
```

```r
select(dados, 1:3)      
```

```
## # A tibble: 234 x 3
##    manufacturer model      displ
##    <fct>        <fct>      <dbl>
##  1 audi         a4           1.8
##  2 audi         a4           1.8
##  3 audi         a4           2  
##  4 audi         a4           2  
##  5 audi         a4           2.8
##  6 audi         a4           2.8
##  7 audi         a4           3.1
##  8 audi         a4 quattro   1.8
##  9 audi         a4 quattro   1.8
## 10 audi         a4 quattro   2  
## # ... with 224 more rows
```

```r
select(dados, c(2,5,7)) 
```

```
## # A tibble: 234 x 3
##    model        cyl drv  
##    <fct>      <int> <fct>
##  1 a4             4 f    
##  2 a4             4 f    
##  3 a4             4 f    
##  4 a4             4 f    
##  5 a4             6 f    
##  6 a4             6 f    
##  7 a4             6 f    
##  8 a4 quattro     4 4    
##  9 a4 quattro     4 4    
## 10 a4 quattro     4 4    
## # ... with 224 more rows
```

```r
select(dados, manufacturer:cyl) 
```

```
## # A tibble: 234 x 5
##    manufacturer model      displ  year   cyl
##    <fct>        <fct>      <dbl> <int> <int>
##  1 audi         a4           1.8  1999     4
##  2 audi         a4           1.8  1999     4
##  3 audi         a4           2    2008     4
##  4 audi         a4           2    2008     4
##  5 audi         a4           2.8  1999     6
##  6 audi         a4           2.8  1999     6
##  7 audi         a4           3.1  2008     6
##  8 audi         a4 quattro   1.8  1999     4
##  9 audi         a4 quattro   1.8  1999     4
## 10 audi         a4 quattro   2    2008     4
## # ... with 224 more rows
```

```r
select(dados,-(manufacturer:cyl))
```

```
## # A tibble: 234 x 6
##    trans      drv     cty   hwy fl    class  
##    <fct>      <fct> <int> <int> <fct> <fct>  
##  1 auto(l5)   f        18    29 p     compact
##  2 manual(m5) f        21    29 p     compact
##  3 manual(m6) f        20    31 p     compact
##  4 auto(av)   f        21    30 p     compact
##  5 auto(l5)   f        16    26 p     compact
##  6 manual(m5) f        18    26 p     compact
##  7 auto(av)   f        18    27 p     compact
##  8 manual(m5) 4        18    26 p     compact
##  9 auto(l5)   4        16    25 p     compact
## 10 manual(m6) 4        20    28 p     compact
## # ... with 224 more rows
```


##   rename()


```r
dados1 <- rename(dados, 
              mnfc = manufacturer,
              mod = model)
dados1
```

```
## # A tibble: 234 x 11
##    mnfc  mod        displ  year   cyl trans      drv     cty   hwy fl    class  
##    <fct> <fct>      <dbl> <int> <int> <fct>      <fct> <int> <int> <fct> <fct>  
##  1 audi  a4           1.8  1999     4 auto(l5)   f        18    29 p     compact
##  2 audi  a4           1.8  1999     4 manual(m5) f        21    29 p     compact
##  3 audi  a4           2    2008     4 manual(m6) f        20    31 p     compact
##  4 audi  a4           2    2008     4 auto(av)   f        21    30 p     compact
##  5 audi  a4           2.8  1999     6 auto(l5)   f        16    26 p     compact
##  6 audi  a4           2.8  1999     6 manual(m5) f        18    26 p     compact
##  7 audi  a4           3.1  2008     6 auto(av)   f        18    27 p     compact
##  8 audi  a4 quattro   1.8  1999     4 manual(m5) 4        18    26 p     compact
##  9 audi  a4 quattro   1.8  1999     4 auto(l5)   4        16    25 p     compact
## 10 audi  a4 quattro   2    2008     4 manual(m6) 4        20    28 p     compact
## # ... with 224 more rows
```

```r
select(dados,
       mnfc = manufacturer,
       mod = model)
```

```
## # A tibble: 234 x 2
##    mnfc  mod       
##    <fct> <fct>     
##  1 audi  a4        
##  2 audi  a4        
##  3 audi  a4        
##  4 audi  a4        
##  5 audi  a4        
##  6 audi  a4        
##  7 audi  a4        
##  8 audi  a4 quattro
##  9 audi  a4 quattro
## 10 audi  a4 quattro
## # ... with 224 more rows
```

```r
select(dados,
       mnfc = manufacturer,
       mod = model,
       everything())
```

```
## # A tibble: 234 x 11
##    mnfc  mod        displ  year   cyl trans      drv     cty   hwy fl    class  
##    <fct> <fct>      <dbl> <int> <int> <fct>      <fct> <int> <int> <fct> <fct>  
##  1 audi  a4           1.8  1999     4 auto(l5)   f        18    29 p     compact
##  2 audi  a4           1.8  1999     4 manual(m5) f        21    29 p     compact
##  3 audi  a4           2    2008     4 manual(m6) f        20    31 p     compact
##  4 audi  a4           2    2008     4 auto(av)   f        21    30 p     compact
##  5 audi  a4           2.8  1999     6 auto(l5)   f        16    26 p     compact
##  6 audi  a4           2.8  1999     6 manual(m5) f        18    26 p     compact
##  7 audi  a4           3.1  2008     6 auto(av)   f        18    27 p     compact
##  8 audi  a4 quattro   1.8  1999     4 manual(m5) 4        18    26 p     compact
##  9 audi  a4 quattro   1.8  1999     4 auto(l5)   4        16    25 p     compact
## 10 audi  a4 quattro   2    2008     4 manual(m6) 4        20    28 p     compact
## # ... with 224 more rows
```

## mutate() para colunas


```r
mutate(dados, sqrt_cty = sqrt(cty))
```

```
## # A tibble: 234 x 12
##    manufac~1 model displ  year   cyl trans drv     cty   hwy fl    class sqrt_~2
##    <fct>     <fct> <dbl> <int> <int> <fct> <fct> <int> <int> <fct> <fct>   <dbl>
##  1 audi      a4      1.8  1999     4 auto~ f        18    29 p     comp~    4.24
##  2 audi      a4      1.8  1999     4 manu~ f        21    29 p     comp~    4.58
##  3 audi      a4      2    2008     4 manu~ f        20    31 p     comp~    4.47
##  4 audi      a4      2    2008     4 auto~ f        21    30 p     comp~    4.58
##  5 audi      a4      2.8  1999     6 auto~ f        16    26 p     comp~    4   
##  6 audi      a4      2.8  1999     6 manu~ f        18    26 p     comp~    4.24
##  7 audi      a4      3.1  2008     6 auto~ f        18    27 p     comp~    4.24
##  8 audi      a4 q~   1.8  1999     4 manu~ 4        18    26 p     comp~    4.24
##  9 audi      a4 q~   1.8  1999     4 auto~ 4        16    25 p     comp~    4   
## 10 audi      a4 q~   2    2008     4 manu~ 4        20    28 p     comp~    4.47
## # ... with 224 more rows, and abbreviated variable names 1: manufacturer,
## #   2: sqrt_cty
```
…
```r
dados <- mutate(dados,
             car = paste(manufacturer, model, sep = " "),
             `cyl / trans` = paste(cyl, " cylinders", " / ", trans, " transmission", sep = ""))
dados
```

```
## # A tibble: 234 x 15
##    manufac~1 model displ  year   cyl trans drv     cty   hwy fl    class sqrt_~2
##    <fct>     <fct> <dbl> <int> <int> <fct> <fct> <int> <int> <fct> <fct>   <dbl>
##  1 audi      a4      1.8  1999     4 auto~ f        18    29 p     comp~    4.24
##  2 audi      a4      1.8  1999     4 manu~ f        21    29 p     comp~    4.58
##  3 audi      a4      2    2008     4 manu~ f        20    31 p     comp~    4.47
##  4 audi      a4      2    2008     4 auto~ f        21    30 p     comp~    4.58
##  5 audi      a4      2.8  1999     6 auto~ f        16    26 p     comp~    4   
##  6 audi      a4      2.8  1999     6 manu~ f        18    26 p     comp~    4.24
##  7 audi      a4      3.1  2008     6 auto~ f        18    27 p     comp~    4.24
##  8 audi      a4 q~   1.8  1999     4 manu~ 4        18    26 p     comp~    4.24
##  9 audi      a4 q~   1.8  1999     4 auto~ 4        16    25 p     comp~    4   
## 10 audi      a4 q~   2    2008     4 manu~ 4        20    28 p     comp~    4.47
## # ... with 224 more rows, 3 more variables: `soma de variáveis` <dbl>,
## #   car <chr>, `cyl / trans` <chr>, and abbreviated variable names
## #   1: manufacturer, 2: sqrt_cty
```

## transmute() 


```r
transmute(dados,
          `avg miles per gallon` = (cty + hwy) / 2)
```

```
## # A tibble: 234 x 1
##    `avg miles per gallon`
##                     <dbl>
##  1                   23.5
##  2                   25  
##  3                   25.5
##  4                   25.5
##  5                   21  
##  6                   22  
##  7                   22.5
##  8                   22  
##  9                   20.5
## 10                   24  
## # ... with 224 more rows
```

```r
transmute(dados,
          car = paste(manufacturer, model, sep = " "),
          `cyl / trans` = paste(cyl, " cylinders", " / ", trans, " transmission", sep = ""))
```

```
## # A tibble: 234 x 2
##    car             `cyl / trans`                        
##    <chr>           <chr>                                
##  1 audi a4         4 cylinders / auto(l5) transmission  
##  2 audi a4         4 cylinders / manual(m5) transmission
##  3 audi a4         4 cylinders / manual(m6) transmission
##  4 audi a4         4 cylinders / auto(av) transmission  
##  5 audi a4         6 cylinders / auto(l5) transmission  
##  6 audi a4         6 cylinders / manual(m5) transmission
##  7 audi a4         6 cylinders / auto(av) transmission  
##  8 audi a4 quattro 4 cylinders / manual(m5) transmission
##  9 audi a4 quattro 4 cylinders / auto(l5) transmission  
## 10 audi a4 quattro 4 cylinders / manual(m6) transmission
## # ... with 224 more rows
```
…
```r
filter(dados, manufacturer == "audi" | manufacturer == "dodge") %>%
  print(n = 20)
```

```
## # A tibble: 55 x 15
##    manufac~1 model displ  year   cyl trans drv     cty   hwy fl    class sqrt_~2
##    <fct>     <fct> <dbl> <int> <int> <fct> <fct> <int> <int> <fct> <fct>   <dbl>
##  1 audi      a4      1.8  1999     4 auto~ f        18    29 p     comp~    4.24
##  2 audi      a4      1.8  1999     4 manu~ f        21    29 p     comp~    4.58
##  3 audi      a4      2    2008     4 manu~ f        20    31 p     comp~    4.47
##  4 audi      a4      2    2008     4 auto~ f        21    30 p     comp~    4.58
##  5 audi      a4      2.8  1999     6 auto~ f        16    26 p     comp~    4   
##  6 audi      a4      2.8  1999     6 manu~ f        18    26 p     comp~    4.24
##  7 audi      a4      3.1  2008     6 auto~ f        18    27 p     comp~    4.24
##  8 audi      a4 q~   1.8  1999     4 manu~ 4        18    26 p     comp~    4.24
##  9 audi      a4 q~   1.8  1999     4 auto~ 4        16    25 p     comp~    4   
## 10 audi      a4 q~   2    2008     4 manu~ 4        20    28 p     comp~    4.47
## 11 audi      a4 q~   2    2008     4 auto~ 4        19    27 p     comp~    4.36
## 12 audi      a4 q~   2.8  1999     6 auto~ 4        15    25 p     comp~    3.87
## 13 audi      a4 q~   2.8  1999     6 manu~ 4        17    25 p     comp~    4.12
## 14 audi      a4 q~   3.1  2008     6 auto~ 4        17    25 p     comp~    4.12
## 15 audi      a4 q~   3.1  2008     6 manu~ 4        15    25 p     comp~    3.87
## 16 audi      a6 q~   2.8  1999     6 auto~ 4        15    24 p     mids~    3.87
## 17 audi      a6 q~   3.1  2008     6 auto~ 4        17    25 p     mids~    4.12
## 18 audi      a6 q~   4.2  2008     8 auto~ 4        16    23 p     mids~    4   
## 19 dodge     cara~   2.4  1999     4 auto~ f        18    24 r     mini~    4.24
## 20 dodge     cara~   3    1999     6 auto~ f        17    24 r     mini~    4.12
## # ... with 35 more rows, 3 more variables: `soma de variáveis` <dbl>,
## #   car <chr>, `cyl / trans` <chr>, and abbreviated variable names
## #   1: manufacturer, 2: sqrt_cty
```

```r
filter(dados, manufacturer %in% c("audi", "dodge")) %>%
  print(n = 20)
```

```
## # A tibble: 55 x 15
##    manufac~1 model displ  year   cyl trans drv     cty   hwy fl    class sqrt_~2
##    <fct>     <fct> <dbl> <int> <int> <fct> <fct> <int> <int> <fct> <fct>   <dbl>
##  1 audi      a4      1.8  1999     4 auto~ f        18    29 p     comp~    4.24
##  2 audi      a4      1.8  1999     4 manu~ f        21    29 p     comp~    4.58
##  3 audi      a4      2    2008     4 manu~ f        20    31 p     comp~    4.47
##  4 audi      a4      2    2008     4 auto~ f        21    30 p     comp~    4.58
##  5 audi      a4      2.8  1999     6 auto~ f        16    26 p     comp~    4   
##  6 audi      a4      2.8  1999     6 manu~ f        18    26 p     comp~    4.24
##  7 audi      a4      3.1  2008     6 auto~ f        18    27 p     comp~    4.24
##  8 audi      a4 q~   1.8  1999     4 manu~ 4        18    26 p     comp~    4.24
##  9 audi      a4 q~   1.8  1999     4 auto~ 4        16    25 p     comp~    4   
## 10 audi      a4 q~   2    2008     4 manu~ 4        20    28 p     comp~    4.47
## 11 audi      a4 q~   2    2008     4 auto~ 4        19    27 p     comp~    4.36
## 12 audi      a4 q~   2.8  1999     6 auto~ 4        15    25 p     comp~    3.87
## 13 audi      a4 q~   2.8  1999     6 manu~ 4        17    25 p     comp~    4.12
## 14 audi      a4 q~   3.1  2008     6 auto~ 4        17    25 p     comp~    4.12
## 15 audi      a4 q~   3.1  2008     6 manu~ 4        15    25 p     comp~    3.87
## 16 audi      a6 q~   2.8  1999     6 auto~ 4        15    24 p     mids~    3.87
## 17 audi      a6 q~   3.1  2008     6 auto~ 4        17    25 p     mids~    4.12
## 18 audi      a6 q~   4.2  2008     8 auto~ 4        16    23 p     mids~    4   
## 19 dodge     cara~   2.4  1999     4 auto~ f        18    24 r     mini~    4.24
## 20 dodge     cara~   3    1999     6 auto~ f        17    24 r     mini~    4.12
## # ... with 35 more rows, 3 more variables: `soma de variáveis` <dbl>,
## #   car <chr>, `cyl / trans` <chr>, and abbreviated variable names
## #   1: manufacturer, 2: sqrt_cty
```
…
```r
filter(dados, year != 1999) %>% 
  select(year) %>%
  print(n = 30)
```

```
## # A tibble: 117 x 1
##     year
##    <int>
##  1  2008
##  2  2008
##  3  2008
##  4  2008
##  5  2008
##  6  2008
##  7  2008
##  8  2008
##  9  2008
## 10  2008
## 11  2008
## 12  2008
## 13  2008
## 14  2008
## 15  2008
## 16  2008
## 17  2008
## 18  2008
## 19  2008
## 20  2008
## 21  2008
## 22  2008
## 23  2008
## 24  2008
## 25  2008
## 26  2008
## 27  2008
## 28  2008
## 29  2008
## 30  2008
## # ... with 87 more rows
```

```r
filter(dados, between(cty,15, 22)) 
```

```
## # A tibble: 143 x 15
##    manufac~1 model displ  year   cyl trans drv     cty   hwy fl    class sqrt_~2
##    <fct>     <fct> <dbl> <int> <int> <fct> <fct> <int> <int> <fct> <fct>   <dbl>
##  1 audi      a4      1.8  1999     4 auto~ f        18    29 p     comp~    4.24
##  2 audi      a4      1.8  1999     4 manu~ f        21    29 p     comp~    4.58
##  3 audi      a4      2    2008     4 manu~ f        20    31 p     comp~    4.47
##  4 audi      a4      2    2008     4 auto~ f        21    30 p     comp~    4.58
##  5 audi      a4      2.8  1999     6 auto~ f        16    26 p     comp~    4   
##  6 audi      a4      2.8  1999     6 manu~ f        18    26 p     comp~    4.24
##  7 audi      a4      3.1  2008     6 auto~ f        18    27 p     comp~    4.24
##  8 audi      a4 q~   1.8  1999     4 manu~ 4        18    26 p     comp~    4.24
##  9 audi      a4 q~   1.8  1999     4 auto~ 4        16    25 p     comp~    4   
## 10 audi      a4 q~   2    2008     4 manu~ 4        20    28 p     comp~    4.47
## # ... with 133 more rows, 3 more variables: `soma de variáveis` <dbl>,
## #   car <chr>, `cyl / trans` <chr>, and abbreviated variable names
## #   1: manufacturer, 2: sqrt_cty
```
…
