…
## unnest()


```r
um %>% 
  unnest(data)
```

```
## # A tibble: 32 x 14
## # Groups:   cyl [3]
##      cyl   mpg  disp    hp  drat    wt  qsec    vs    am  gear  carb linMod
##    <dbl> <dbl> <dbl> <dbl> <dbl> <dbl> <dbl> <dbl> <dbl> <dbl> <dbl> <list>
##  1     6  21    160    110  3.9   2.62  16.5     0     1     4     4 <lm>  
##  2     6  21    160    110  3.9   2.88  17.0     0     1     4     4 <lm>  
##  3     6  21.4  258    110  3.08  3.22  19.4     1     0     3     1 <lm>  
##  4     6  18.1  225    105  2.76  3.46  20.2     1     0     3     1 <lm>  
##  5     6  19.2  168.   123  3.92  3.44  18.3     1     0     4     4 <lm>  
##  6     6  17.8  168.   123  3.92  3.44  18.9     1     0     4     4 <lm>  
##  7     6  19.7  145    175  3.62  2.77  15.5     0     1     5     6 <lm>  
##  8     4  22.8  108     93  3.85  2.32  18.6     1     1     4     1 <lm>  
##  9     4  24.4  147.    62  3.69  3.19  20       1     0     4     2 <lm>  
## 10     4  22.8  141.    95  3.92  3.15  22.9     1     0     4     2 <lm>  
## # ... with 22 more rows, and 2 more variables: coeffs <list>, slope <dbl>
```
…
