…
theme_set(theme_minimal())
```

Let's try this on a simple dataset, the built-in `Orange`. We start by coercing `Orange` to a `tibble`. This gives a nicer print method that will especially useful later on when we start working with list-columns.


```r
data(Orange)

Orange <- as_tibble(Orange)
Orange
```

```
## # A tibble: 35 x 3
##    Tree    age circumference
##    <ord> <dbl>         <dbl>
##  1 1       118            30
##  2 1       484            58
##  3 1       664            87
##  4 1      1004           115
##  5 1      1231           120
##  6 1      1372           142
##  7 1      1582           145
##  8 2       118            33
##  9 2       484            69
## 10 2       664           111
## # ... with 25 more rows
```
…
You can just as easily use multiple predictors in the regressions, as shown here on the `mtcars` dataset. We nest the data into automatic and manual cars (the `am` column), then perform the regression within each nested tibble.


```r
data(mtcars)
mtcars <- as_tibble(mtcars) # to play nicely with list-cols
mtcars
```

```
## # A tibble: 32 x 11
##      mpg   cyl  disp    hp  drat    wt  qsec    vs    am  gear  carb
##    <dbl> <dbl> <dbl> <dbl> <dbl> <dbl> <dbl> <dbl> <dbl> <dbl> <dbl>
##  1  21       6  160    110  3.9   2.62  16.5     0     1     4     4
##  2  21       6  160    110  3.9   2.88  17.0     0     1     4     4
##  3  22.8     4  108     93  3.85  2.32  18.6     1     1     4     1
##  4  21.4     6  258    110  3.08  3.22  19.4     1     0     3     1
##  5  18.7     8  360    175  3.15  3.44  17.0     0     0     3     2
##  6  18.1     6  225    105  2.76  3.46  20.2     1     0     3     1
##  7  14.3     8  360    245  3.21  3.57  15.8     0     0     3     4
##  8  24.4     4  147.    62  3.69  3.19  20       1     0     4     2
##  9  22.8     4  141.    95  3.92  3.15  22.9     1     0     4     2
## 10  19.2     6  168.   123  3.92  3.44  18.3     1     0     4     4
## # ... with 22 more rows
```
…
```r
regressions %>%
  unnest(augmented)
```

```
## # A tibble: 32 x 15
##       am data     fit    tidied   glanced     wt   mpg  qsec  gear .fitted
##    <dbl> <list>   <list> <list>   <list>   <dbl> <dbl> <dbl> <dbl>   <dbl>
##  1     1 <tibble> <lm>   <tibble> <tibble>  2.62  21    16.5     4    2.73
##  2     1 <tibble> <lm>   <tibble> <tibble>  2.88  21    17.0     4    2.75
##  3     1 <tibble> <lm>   <tibble> <tibble>  2.32  22.8  18.6     4    2.63
##  4     1 <tibble> <lm>   <tibble> <tibble>  2.2   32.4  19.5     4    1.70
##  5     1 <tibble> <lm>   <tibble> <tibble>  1.62  30.4  18.5     4    1.86
##  6     1 <tibble> <lm>   <tibble> <tibble>  1.84  33.9  19.9     4    1.56
##  7     1 <tibble> <lm>   <tibble> <tibble>  1.94  27.3  18.9     4    2.19
##  8     1 <tibble> <lm>   <tibble> <tibble>  2.14  26    16.7     5    2.21
##  9     1 <tibble> <lm>   <tibble> <tibble>  1.51  30.4  16.9     5    1.77
## 10     1 <tibble> <lm>   <tibble> <tibble>  3.17  15.8  14.5     5    3.15
## # ... with 22 more rows, and 5 more variables: .resid <dbl>, .hat <dbl>,
## #   .sigma <dbl>, .cooksd <dbl>, .std.resid <dbl>
```
…
```r
library(dplyr)
library(rsample)
library(broom)
library(purrr)
library(tidyr)
set.seed(27)
boots <- bootstraps(mtcars, times = 100)
boots
```

```
## # Bootstrap sampling 
## # A tibble: 100 x 2
##    splits          id          
##    <list>          <chr>       
##  1 <split [32/13]> Bootstrap001
##  2 <split [32/10]> Bootstrap002
##  3 <split [32/13]> Bootstrap003
##  4 <split [32/11]> Bootstrap004
##  5 <split [32/9]>  Bootstrap005
##  6 <split [32/10]> Bootstrap006
##  7 <split [32/11]> Bootstrap007
##  8 <split [32/13]> Bootstrap008
##  9 <split [32/11]> Bootstrap009
## 10 <split [32/11]> Bootstrap010
## # ... with 90 more rows
```
…
```r
fit_nls_on_bootstrap <- function(split) {
    nls(mpg ~ k / wt + b, analysis(split), start = list(k = 1, b = 0))
}
boot_models <- boots %>% 
    mutate(model = map(splits, fit_nls_on_bootstrap),
           coef_info = map(model, tidy))
boot_models
```

```
## # Bootstrap sampling 
## # A tibble: 100 x 4
##    splits          id           model  coef_info       
##    <list>          <chr>        <list> <list>          
##  1 <split [32/13]> Bootstrap001 <nls>  <tibble [2 x 5]>
##  2 <split [32/10]> Bootstrap002 <nls>  <tibble [2 x 5]>
##  3 <split [32/13]> Bootstrap003 <nls>  <tibble [2 x 5]>
##  4 <split [32/11]> Bootstrap004 <nls>  <tibble [2 x 5]>
##  5 <split [32/9]>  Bootstrap005 <nls>  <tibble [2 x 5]>
##  6 <split [32/10]> Bootstrap006 <nls>  <tibble [2 x 5]>
##  7 <split [32/11]> Bootstrap007 <nls>  <tibble [2 x 5]>
##  8 <split [32/13]> Bootstrap008 <nls>  <tibble [2 x 5]>
##  9 <split [32/11]> Bootstrap009 <nls>  <tibble [2 x 5]>
## 10 <split [32/11]> Bootstrap010 <nls>  <tibble [2 x 5]>
## # ... with 90 more rows
```

```r
boot_coefs <- boot_models %>% 
    unnest(coef_info)
```

The unnested coefficient information contains a summary of each replication combined in a single data frame:


```r
boot_coefs
```

```
## # A tibble: 200 x 8
##    splits          id           model  term  estimate std.error stati~1  p.value
##    <list>          <chr>        <list> <chr>    <dbl>     <dbl>   <dbl>    <dbl>
##  1 <split [32/13]> Bootstrap001 <nls>  k        42.1       4.05   10.4  1.91e-11
##  2 <split [32/13]> Bootstrap001 <nls>  b         5.39      1.43    3.78 6.93e- 4
##  3 <split [32/10]> Bootstrap002 <nls>  k        49.9       5.66    8.82 7.82e-10
##  4 <split [32/10]> Bootstrap002 <nls>  b         3.73      1.92    1.94 6.13e- 2
##  5 <split [32/13]> Bootstrap003 <nls>  k        37.8       2.68   14.1  9.01e-15
##  6 <split [32/13]> Bootstrap003 <nls>  b         6.73      1.17    5.75 2.78e- 6
##  7 <split [32/11]> Bootstrap004 <nls>  k        45.6       4.45   10.2  2.70e-11
##  8 <split [32/11]> Bootstrap004 <nls>  b         4.75      1.62    2.93 6.38e- 3
##  9 <split [32/9]>  Bootstrap005 <nls>  k        43.6       4.63    9.41 1.85e-10
## 10 <split [32/9]>  Bootstrap005 <nls>  b         5.89      1.68    3.51 1.44e- 3
## # ... with 190 more rows, and abbreviated variable name 1: statistic
```
…
Or we can use `augment` to visualize the uncertainty in the curve:


```r
boot_aug <- boot_models %>% 
    mutate(augmented = map(model, augment)) %>% 
    unnest(augmented)
boot_aug
```

```
## # A tibble: 3,200 x 8
##    splits          id           model  coef_info   mpg    wt .fitted .resid
##    <list>          <chr>        <list> <list>    <dbl> <dbl>   <dbl>  <dbl>
##  1 <split [32/13]> Bootstrap001 <nls>  <tibble>   18.7  3.44    17.6  1.08 
##  2 <split [32/13]> Bootstrap001 <nls>  <tibble>   32.4  2.2     24.5  7.89 
##  3 <split [32/13]> Bootstrap001 <nls>  <tibble>   15.5  3.52    17.3 -1.84 
##  4 <split [32/13]> Bootstrap001 <nls>  <tibble>   22.8  3.15    18.7  4.05 
##  5 <split [32/13]> Bootstrap001 <nls>  <tibble>   24.4  3.19    18.6  5.82 
##  6 <split [32/13]> Bootstrap001 <nls>  <tibble>   30.4  1.62    31.4 -1.04 
##  7 <split [32/13]> Bootstrap001 <nls>  <tibble>   10.4  5.42    13.1 -2.75 
##  8 <split [32/13]> Bootstrap001 <nls>  <tibble>   21    2.62    21.4 -0.448
##  9 <split [32/13]> Bootstrap001 <nls>  <tibble>   19.2  3.84    16.3  2.87 
## 10 <split [32/13]> Bootstrap001 <nls>  <tibble>   21    2.62    21.4 -0.448
## # ... with 3,190 more rows
```
…
